﻿{
    "$schema": "http://json.schemastore.org/launchsettings.json",
    "iisSettings": {
        "windowsAuthentication": false,
        "anonymousAuthentication": true,
        "iisExpress": {
            "applicationUrl": "http://localhost:15945",
            "sslPort": 44322
        }
    },
    "profiles": {
        "IIS Express": {
            "commandName": "IISExpress",
            "launchBrowser": true,
            "launchUrl": "api/values",
            "environmentVariables": {
                "ASPNETCORE_ENVIRONMENT": "Development"
            }
        },
        "Uklon": {
            "commandName": "Project",
            "launchBrowser": true,
            "launchUrl": "api/values",
            "applicationUrl": "https://localhost:5001;http://localhost:5000",
            "environmentVariables": {
                "ASPNETCORE_ENVIRONMENT": "Development"
            }
        }
    }
}